{"uid":"4b4757e66a1912dae1a509f688f20b0f","name":"categories","children":[{"name":"Product defects","children":[{"name":"1 expectation failed.\nExpected status code <200> but was <400>.\n","children":[{"name":"#10 [CTA-007] Alterar limite com payload inválido","uid":"75c06017f01feab2","parentUid":"3322b5d56ab2d43ffab4be5a2a03ee17","status":"failed","time":{"start":1772125268367,"stop":1772125268787,"duration":420},"flaky":false,"newFailed":false,"newPassed":false,"newBroken":false,"retriesCount":0,"retriesStatusChange":false,"parameters":[],"tags":["Contract"]},{"name":"#10 [CTA-001] Consultar limite diário com sucesso","uid":"9f00784d575f7968","parentUid":"3322b5d56ab2d43ffab4be5a2a03ee17","status":"failed","time":{"start":1772125268799,"stop":1772125269200,"duration":401},"flaky":false,"newFailed":false,"newPassed":false,"newBroken":false,"retriesCount":0,"retriesStatusChange":false,"parameters":[],"tags":["Contract"]},{"name":"#10 [CTA-006] Alterar limite com senha transacional inválida","uid":"969a4a91f4a53e2f","parentUid":"3322b5d56ab2d43ffab4be5a2a03ee17","status":"failed","time":{"start":1772125713426,"stop":1772125713809,"duration":383},"flaky":false,"newFailed":false,"newPassed":false,"newBroken":false,"retriesCount":0,"retriesStatusChange":false,"parameters":[],"tags":["Regression"]},{"name":"#10 [CTA-004] Definir limite diário igual a zero","uid":"c1d7d5261a88829b","parentUid":"3322b5d56ab2d43ffab4be5a2a03ee17","status":"failed","time":{"start":1772125713811,"stop":1772125714193,"duration":382},"flaky":false,"newFailed":false,"newPassed":false,"newBroken":false,"retriesCount":0,"retriesStatusChange":false,"parameters":[],"tags":["Regression"]},{"name":"#11 [CTA-007] Validar paginação do histórico de transações","uid":"5951f1925374c80c","parentUid":"3322b5d56ab2d43ffab4be5a2a03ee17","status":"failed","time":{"start":1772125996285,"stop":1772126017086,"duration":20801},"flaky":false,"newFailed":false,"newPassed":false,"newBroken":false,"retriesCount":0,"retriesStatusChange":false,"parameters":[],"tags":["Regression"]},{"name":"#11 [CTA-001] Visualizar histórico completo","uid":"d35148170f137889","parentUid":"3322b5d56ab2d43ffab4be5a2a03ee17","status":"failed","time":{"start":1772126017090,"stop":1772126039683,"duration":22593},"flaky":false,"newFailed":false,"newPassed":false,"newBroken":false,"retriesCount":0,"retriesStatusChange":false,"parameters":[],"tags":[]},{"name":"#11 [CTA-005] Filtrar histórico por período de datas","uid":"9bb1e1c10530185","parentUid":"3322b5d56ab2d43ffab4be5a2a03ee17","status":"failed","time":{"start":1772126039686,"stop":1772126060384,"duration":20698},"flaky":false,"newFailed":false,"newPassed":false,"newBroken":false,"retriesCount":0,"retriesStatusChange":false,"parameters":[],"tags":["Regression"]},{"name":"#11 [CTA-002] Validar contrato de cada transação retornada","uid":"903b914c3f52dce3","parentUid":"3322b5d56ab2d43ffab4be5a2a03ee17","status":"failed","time":{"start":1772126060386,"stop":1772126081688,"duration":21302},"flaky":false,"newFailed":false,"newPassed":false,"newBroken":false,"retriesCount":0,"retriesStatusChange":false,"parameters":[],"tags":[]},{"name":"#11 [CTA-009] Consultar transações realizadas em um único dia por método","uid":"7c6039f2cb6827a2","parentUid":"3322b5d56ab2d43ffab4be5a2a03ee17","status":"failed","time":{"start":1772126081691,"stop":1772126102989,"duration":21298},"flaky":false,"newFailed":false,"newPassed":false,"newBroken":false,"retriesCount":0,"retriesStatusChange":false,"parameters":[],"tags":["Regression"]},{"name":"#11 [CTA-008] Consultar histórico sem autenticação","uid":"b3971afb01998f11","parentUid":"3322b5d56ab2d43ffab4be5a2a03ee17","status":"failed","time":{"start":1772126102991,"stop":1772126124288,"duration":21297},"flaky":false,"newFailed":false,"newPassed":false,"newBroken":false,"retriesCount":0,"retriesStatusChange":false,"parameters":[],"tags":["Regression"]},{"name":"#11 [CTA-006] Filtrar histórico por método de transação","uid":"5522fb49268c8abd","parentUid":"3322b5d56ab2d43ffab4be5a2a03ee17","status":"failed","time":{"start":1772126124292,"stop":1772126145392,"duration":21100},"flaky":false,"newFailed":false,"newPassed":false,"newBroken":false,"retriesCount":0,"retriesStatusChange":false,"parameters":[],"tags":["Regression"]},{"name":"#11 [CTA-003/004] Exibir descrição da transação quando informada","uid":"3095c402984272e","parentUid":"3322b5d56ab2d43ffab4be5a2a03ee17","status":"failed","time":{"start":1772126145396,"stop":1772126167304,"duration":21908},"flaky":false,"newFailed":false,"newPassed":false,"newBroken":false,"retriesCount":0,"retriesStatusChange":false,"parameters":[],"tags":[]}],"uid":"3322b5d56ab2d43ffab4be5a2a03ee17"},{"name":"1 expectation failed.\nResponse body doesn't match expectation.\nExpected: The content to match the given JSON schema.\nerror: object has missing required properties ([\"lateFee\"])\n    level: \"error\"\n    schema: {\"loadingURI\":\"file:/var/jenkins_home/workspace/dbc-bank-questers/automation/api-restassured/target/test-classes/schemas/faturas/get-detalhe-fatura-schema-200.json#\",\"pointer\":\"\"}\n    instance: {\"pointer\":\"\"}\n    domain: \"validation\"\n    keyword: \"required\"\n    required: [\"amount\",\"barCode\",\"dueDate\",\"id\",\"issueDate\",\"lateFee\",\"payerDocument\",\"payerName\",\"recipientDocument\",\"recipientName\",\"status\"]\n    missing: [\"lateFee\"]\n\n  Actual: {\"id\":\"8c36e612-2ba2-435a-a4f7-66d809d1e153\",\"issueDate\":\"20/08/2025\",\"dueDate\":\"19/09/2025\",\"amount\":299.49,\"payerName\":\"Amitair Ferreira Lima\",\"payerDocument\":\"05496789303\",\"recipientName\":\"Lojas Novabras\",\"recipientDocument\":\"55.678.901/0006-06\",\"barCode\":\"99404.55999 23296.10955 81972.31074 8 68050090266\",\"status\":\"Pago\"}\n","children":[{"name":"#16/2 [CTA-001] Deve exibir dados do boleto para revisão antes da confirmação (Contrato)","uid":"84f8f943f3b3a181","parentUid":"97eb57d18a6ddb1d9e7ac7ba239fced1","status":"failed","time":{"start":1772125332623,"stop":1772125333975,"duration":1352},"flaky":false,"newFailed":true,"newPassed":false,"newBroken":false,"retriesCount":0,"retriesStatusChange":false,"parameters":[],"tags":["Contract"]}],"uid":"97eb57d18a6ddb1d9e7ac7ba239fced1"},{"name":"1 expectation failed.\nResponse body doesn't match expectation.\nExpected: The content to match the given JSON schema.\nerror: object has missing required properties ([\"lateFee\"])\n    level: \"error\"\n    schema: {\"loadingURI\":\"file:/var/jenkins_home/workspace/dbc-bank-questers/automation/api-restassured/target/test-classes/schemas/faturas/get-listar-faturas-schema-200.json#\",\"pointer\":\"/properties/invoices/items\"}\n    instance: {\"pointer\":\"/invoices/0\"}\n    domain: \"validation\"\n    keyword: \"required\"\n    required: [\"amount\",\"barCode\",\"createdAt\",\"dueDate\",\"id\",\"isPending\",\"issueDate\",\"lateFee\",\"payerDocument\",\"payerName\",\"paymentDate\",\"paymentMethod\",\"recipientDocument\",\"recipientName\",\"status\",\"updatedAt\"]\n    missing: [\"lateFee\"]\nerror: object has missing required properties ([\"lateFee\"])\n    level: \"error\"\n    schema: {\"loadingURI\":\"file:/var/jenkins_home/workspace/dbc-bank-questers/automation/api-restassured/target/test-classes/schemas/faturas/get-listar-faturas-schema-200.json#\",\"pointer\":\"/properties/invoices/items\"}\n    instance: {\"pointer\":\"/invoices/1\"}\n    domain: \"validation\"\n    keyword: \"required\"\n    required: [\"amount\",\"barCode\",\"createdAt\",\"dueDate\",\"id\",\"isPending\",\"issueDate\",\"lateFee\",\"payerDocument\",\"payerName\",\"paymentDate\",\"paymentMethod\",\"recipientDocument\",\"recipientName\",\"status\",\"updatedAt\"]\n    missing: [\"lateFee\"]\nerror: object has missing required properties ([\"lateFee\"])\n    level: \"error\"\n    schema: {\"loadingURI\":\"file:/var/jenkins_home/workspace/dbc-bank-questers/automation/api-restassured/target/test-classes/schemas/faturas/get-listar-faturas-schema-200.json#\",\"pointer\":\"/properties/invoices/items\"}\n    instance: {\"pointer\":\"/invoices/2\"}\n    domain: \"validation\"\n    keyword: \"required\"\n    required: [\"amount\",\"barCode\",\"createdAt\",\"dueDate\",\"id\",\"isPending\",\"issueDate\",\"lateFee\",\"payerDocument\",\"payerName\",\"paymentDate\",\"paymentMethod\",\"recipientDocument\",\"recipientName\",\"status\",\"updatedAt\"]\n    missing: [\"lateFee\"]\nerror: object has missing required properties ([\"lateFee\"])\n    level: \"error\"\n    schema: {\"loadingURI\":\"file:/var/jenkins_home/workspace/dbc-bank-questers/automation/api-restassured/target/test-classes/schemas/faturas/get-listar-faturas-schema-200.json#\",\"pointer\":\"/properties/invoices/items\"}\n    instance: {\"pointer\":\"/invoices/3\"}\n    domain: \"validation\"\n    keyword: \"required\"\n    required: [\"amount\",\"barCode\",\"createdAt\",\"dueDate\",\"id\",\"isPending\",\"issueDate\",\"lateFee\",\"payerDocument\",\"payerName\",\"paymentDate\",\"paymentMethod\",\"recipientDocument\",\"recipientName\",\"status\",\"updatedAt\"]\n    missing: [\"lateFee\"]\nerror: object has missing required properties ([\"lateFee\"])\n    level: \"error\"\n    schema: {\"loadingURI\":\"file:/var/jenkins_home/workspace/dbc-bank-questers/automation/api-restassured/target/test-classes/schemas/faturas/get-listar-faturas-schema-200.json#\",\"pointer\":\"/properties/invoices/items\"}\n    instance: {\"pointer\":\"/invoices/4\"}\n    domain: \"validation\"\n    keyword: \"required\"\n    required: [\"amount\",\"barCode\",\"createdAt\",\"dueDate\",\"id\",\"isPending\",\"issueDate\",\"lateFee\",\"payerDocument\",\"payerName\",\"paymentDate\",\"paymentMethod\",\"recipientDocument\",\"recipientName\",\"status\",\"updatedAt\"]\n    missing: [\"lateFee\"]\nerror: object has missing required properties ([\"lateFee\"])\n    level: \"error\"\n    schema: {\"loadingURI\":\"file:/var/jenkins_home/workspace/dbc-bank-questers/automation/api-restassured/target/test-classes/schemas/faturas/get-listar-faturas-schema-200.json#\",\"pointer\":\"/properties/invoices/items\"}\n    instance: {\"pointer\":\"/invoices/5\"}\n    domain: \"validation\"\n    keyword: \"required\"\n    required: [\"amount\",\"barCode\",\"createdAt\",\"dueDate\",\"id\",\"isPending\",\"issueDate\",\"lateFee\",\"payerDocument\",\"payerName\",\"paymentDate\",\"paymentMethod\",\"recipientDocument\",\"recipientName\",\"status\",\"updatedAt\"]\n    missing: [\"lateFee\"]\nerror: object has missing required properties ([\"lateFee\"])\n    level: \"error\"\n    schema: {\"loadingURI\":\"file:/var/jenkins_home/workspace/dbc-bank-questers/automation/api-restassured/target/test-classes/schemas/faturas/get-listar-faturas-schema-200.json#\",\"pointer\":\"/properties/invoices/items\"}\n    instance: {\"pointer\":\"/invoices/6\"}\n    domain: \"validation\"\n    keyword: \"required\"\n    required: [\"amount\",\"barCode\",\"createdAt\",\"dueDate\",\"id\",\"isPending\",\"issueDate\",\"lateFee\",\"payerDocument\",\"payerName\",\"paymentDate\",\"paymentMethod\",\"recipientDocument\",\"recipientName\",\"status\",\"updatedAt\"]\n    missing: [\"lateFee\"]\nerror: object has missing required properties ([\"lateFee\"])\n    level: \"error\"\n    schema: {\"loadingURI\":\"file:/var/jenkins_home/workspace/dbc-bank-questers/automation/api-restassured/target/test-classes/schemas/faturas/get-listar-faturas-schema-200.json#\",\"pointer\":\"/properties/invoices/items\"}\n    instance: {\"pointer\":\"/invoices/7\"}\n    domain: \"validation\"\n    keyword: \"required\"\n    required: [\"amount\",\"barCode\",\"createdAt\",\"dueDate\",\"id\",\"isPending\",\"issueDate\",\"lateFee\",\"payerDocument\",\"payerName\",\"paymentDate\",\"paymentMethod\",\"recipientDocument\",\"recipientName\",\"status\",\"updatedAt\"]\n    missing: [\"lateFee\"]\nerror: object has missing required properties ([\"lateFee\"])\n    level: \"error\"\n    schema: {\"loadingURI\":\"file:/var/jenkins_home/workspace/dbc-bank-questers/automation/api-restassured/target/test-classes/schemas/faturas/get-listar-faturas-schema-200.json#\",\"pointer\":\"/properties/invoices/items\"}\n    instance: {\"pointer\":\"/invoices/8\"}\n    domain: \"validation\"\n    keyword: \"required\"\n    required: [\"amount\",\"barCode\",\"createdAt\",\"dueDate\",\"id\",\"isPending\",\"issueDate\",\"lateFee\",\"payerDocument\",\"payerName\",\"paymentDate\",\"paymentMethod\",\"recipientDocument\",\"recipientName\",\"status\",\"updatedAt\"]\n    missing: [\"lateFee\"]\nerror: object has missing required properties ([\"lateFee\"])\n    level: \"error\"\n    schema: {\"loadingURI\":\"file:/var/jenkins_home/workspace/dbc-bank-questers/automation/api-restassured/target/test-classes/schemas/faturas/get-listar-faturas-schema-200.json#\",\"pointer\":\"/properties/invoices/items\"}\n    instance: {\"pointer\":\"/invoices/9\"}\n    domain: \"validation\"\n    keyword: \"required\"\n    required: [\"amount\",\"barCode\",\"createdAt\",\"dueDate\",\"id\",\"isPending\",\"issueDate\",\"lateFee\",\"payerDocument\",\"payerName\",\"paymentDate\",\"paymentMethod\",\"recipientDocument\",\"recipientName\",\"status\",\"updatedAt\"]\n    missing: [\"lateFee\"]\n\n  Actual: {\"invoices\":[{\"id\":\"7b721872-5d52-42ba-96de-7381c60ab94b\",\"issueDate\":\"23/02/2026\",\"dueDate\":\"25/03/2026\",\"amount\":489.82,\"payerName\":\"Ana Banana\",\"payerDocument\":\"31221305050\",\"recipientName\":\"CORALSAN Compania de Água e Esgoto\",\"recipientDocument\":\"10.101.010/0011-11\",\"barCode\":\"93257.62909 71273.68697 65116.56172 3 47521288213\",\"status\":\"Pago\",\"paymentDate\":\"23/02/2026\",\"paymentMethod\":\"Transferência Eletrônica\",\"isPending\":false,\"createdAt\":\"23/02/2026 15:53:34\",\"updatedAt\":\"23/02/2026 15:58:59\"},{\"id\":\"edca510c-d2aa-411e-b23b-f9318d68ff88\",\"issueDate\":\"23/02/2026\",\"dueDate\":\"25/03/2026\",\"amount\":842.93,\"payerName\":\"Ana Banana\",\"payerDocument\":\"31221305050\",\"recipientName\":\"Mercado Express\",\"recipientDocument\":\"88.901.234/0009-09\",\"barCode\":\"94304.78861 18429.21076 92016.95153 0 99888790625\",\"status\":\"Pago\",\"paymentDate\":\"24/02/2026\",\"paymentMethod\":\"Cartão de Crédito\",\"isPending\":false,\"createdAt\":\"23/02/2026 15:59:46\",\"updatedAt\":\"24/02/2026 16:01:34\"},{\"id\":\"5bdacb52-bb65-4277-93a5-52416aa4e384\",\"issueDate\":\"23/02/2026\",\"dueDate\":\"25/03/2026\",\"amount\":427.81,\"payerName\":\"Ana Banana\",\"payerDocument\":\"31221305050\",\"recipientName\":\"Mercado Express\",\"recipientDocument\":\"88.901.234/0009-09\",\"barCode\":\"66610.41036 77278.06615 95040.49878 6 18946206475\",\"status\":\"Pago\",\"paymentDate\":\"24/02/2026\",\"paymentMethod\":\"Cartão de Crédito\",\"isPending\":false,\"createdAt\":\"23/02/2026 16:00:41\",\"updatedAt\":\"24/02/2026 15:52:49\"},{\"id\":\"e1b5c9f4-2790-4c4c-84e4-ae769de98f59\",\"issueDate\":\"24/02/2026\",\"dueDate\":\"26/03/2026\",\"amount\":956.63,\"payerName\":\"Ana Banana\",\"payerDocument\":\"31221305050\",\"recipientName\":\"Compania Metropolitana de Energia Elétrica\",\"recipientDocument\":\"19.898.989/0020-20\",\"barCode\":\"43744.25413 16704.16059 72104.89401 4 24620562793\",\"status\":\"Pago\",\"paymentDate\":\"26/02/2026\",\"paymentMethod\":\"Cartão de Crédito\",\"isPending\":false,\"createdAt\":\"24/02/2026 10:13:53\",\"updatedAt\":\"26/02/2026 11:02:16\"},{\"id\":\"9849b9aa-72d2-42b6-ac0a-9b2ea80e75b7\",\"issueDate\":\"24/02/2026\",\"dueDate\":\"26/03/2026\",\"amount\":500.35,\"payerName\":\"lucas\",\"payerDocument\":\"60382797094\",\"recipientName\":\"Lojas Novabras\",\"recipientDocument\":\"55.678.901/0006-06\",\"barCode\":\"52092.55948 94352.55446 75279.76696 4 78226257080\",\"status\":\"Pago\",\"paymentDate\":\"25/02/2026\",\"paymentMethod\":\"Cartão de Crédito\",\"isPending\":false,\"createdAt\":\"24/02/2026 15:04:54\",\"updatedAt\":\"25/02/2026 09:18:37\"},{\"id\":\"82e286e7-97c7-4285-a90c-d1477aa48795\",\"issueDate\":\"25/02/2026\",\"dueDate\":\"27/03/2026\",\"amount\":803.05,\"payerName\":\"Ana Pera\",\"payerDocument\":\"00166758000\",\"recipientName\":\"Zona Sul Saneamento\",\"recipientDocument\":\"11.110.101/0012-12\",\"barCode\":\"65797.40489 19662.17182 14571.09042 6 42343446516\",\"status\":\"Pago\",\"paymentDate\":\"26/02/2026\",\"paymentMethod\":\"Cartão de Crédito\",\"isPending\":false,\"createdAt\":\"25/02/2026 10:05:35\",\"updatedAt\":\"26/02/2026 11:07:05\"},{\"id\":\"49598219-dfba-492c-a429-0e493302be3e\",\"issueDate\":\"20/08/2025\",\"dueDate\":\"19/09/2025\",\"amount\":670.71,\"payerName\":\"Amitair Ferreira Lima\",\"payerDocument\":\"05496789303\",\"recipientName\":\"Energia Sul Distribuidora\",\"recipientDocument\":\"13.232.323/0014-14\",\"barCode\":\"78199.43975 67866.71726 58506.56715 5 52411246676\",\"status\":\"Pago\",\"paymentDate\":\"20/08/2025\",\"paymentMethod\":\"Cartão de Crédito\",\"isPending\":false,\"createdAt\":\"20/08/2025 14:21:27\",\"updatedAt\":\"20/08/2025 15:06:19\"},{\"id\":\"fd4c6d31-bc9e-4098-8f0f-ea29287b728f\",\"issueDate\":\"20/08/2025\",\"dueDate\":\"19/09/2025\",\"amount\":427.51,\"payerName\":\"Amitair Ferreira Lima\",\"payerDocument\":\"05496789303\",\"recipientName\":\"BRZ Telefonia\",\"recipientDocument\":\"15.454.545/0016-16\",\"barCode\":\"84349.82073 26711.90443 06134.91843 4 08626262598\",\"status\":\"Pago\",\"paymentDate\":\"20/08/2025\",\"paymentMethod\":\"Transferência Eletrônica\",\"isPending\":false,\"createdAt\":\"20/08/2025 14:48:17\",\"updatedAt\":\"20/08/2025 14:50:54\"},{\"id\":\"d45348ac-0d2d-4da9-a8f1-a04a09610015\",\"issueDate\":\"20/08/2025\",\"dueDate\":\"19/09/2025\",\"amount\":810.65,\"payerName\":\"Amitair Ferreira Lima\",\"payerDocument\":\"05496789303\",\"recipientName\":\"Mercado Express\",\"recipientDocument\":\"88.901.234/0009-09\",\"barCode\":\"01509.94700 26610.19392 34781.90163 5 42207875037\",\"status\":\"Pago\",\"paymentDate\":\"20/08/2025\",\"paymentMethod\":\"Cartão de Crédito\",\"isPending\":false,\"createdAt\":\"20/08/2025 15:04:12\",\"updatedAt\":\"20/08/2025 15:37:33\"},{\"id\":\"8c36e612-2ba2-435a-a4f7-66d809d1e153\",\"issueDate\":\"20/08/2025\",\"dueDate\":\"19/09/2025\",\"amount\":299.49,\"payerName\":\"Amitair Ferreira Lima\",\"payerDocument\":\"05496789303\",\"recipientName\":\"Lojas Novabras\",\"recipientDocument\":\"55.678.901/0006-06\",\"barCode\":\"99404.55999 23296.10955 81972.31074 8 68050090266\",\"status\":\"Pago\",\"paymentDate\":\"25/08/2025\",\"paymentMethod\":\"Transferência Eletrônica\",\"isPending\":false,\"createdAt\":\"20/08/2025 15:10:49\",\"updatedAt\":\"25/08/2025 09:39:45\"}],\"currentPage\":1,\"totalPages\":4,\"totalElements\":36}\n","children":[{"name":"#16/2 [CTA-005] Deve listar histórico de faturas com sucesso (Contrato)","uid":"a762d082c87a24f0","parentUid":"14b97e863c05a48cd58c021c3cb3497a","status":"failed","time":{"start":1772125333977,"stop":1772125335713,"duration":1736},"flaky":false,"newFailed":false,"newPassed":false,"newBroken":false,"retriesCount":0,"retriesStatusChange":false,"parameters":[],"tags":["Contract"]}],"uid":"14b97e863c05a48cd58c021c3cb3497a"},{"name":"1 expectation failed.\nExpected status code <201> but was <409>.\n","children":[{"name":"#12 [CTA-005]: Cadastrar 5 chaves Pix de tipos diferentes","uid":"46ca0620a7370554","parentUid":"07f4658270409c8315fffb5e27778143","status":"failed","time":{"start":1772125381774,"stop":1772125382938,"duration":1164},"flaky":false,"newFailed":false,"newPassed":false,"newBroken":false,"retriesCount":0,"retriesStatusChange":false,"parameters":[],"tags":["Contract"]}],"uid":"07f4658270409c8315fffb5e27778143"},{"name":"1 expectation failed.\nJSON path error doesn't match.\nExpected: OUT_OF_TIME_TRANSACTION\n  Actual: INSUFFICIENT_FUNDS\n","children":[{"name":"#8 [CTA-006] Não deve realizar transferência fora do horário comercial","uid":"dbea1f643a6400e1","parentUid":"0378b8b43591a16f1410ffdb17523018","status":"failed","time":{"start":1772125448214,"stop":1772125453043,"duration":4829},"flaky":true,"newFailed":true,"newPassed":false,"newBroken":false,"retriesCount":0,"retriesStatusChange":false,"parameters":[],"tags":[]},{"name":"#8 [CTA-001] Deve validar transferência com sucesso e aplicação de tarifa fixa","uid":"26a5ba622f6a404b","parentUid":"0378b8b43591a16f1410ffdb17523018","status":"failed","time":{"start":1772125472326,"stop":1772125493686,"duration":21360},"flaky":false,"newFailed":false,"newPassed":false,"newBroken":false,"retriesCount":0,"retriesStatusChange":false,"parameters":[],"tags":[]},{"name":"#8 [CTA-004] Não deve validar transferência com saldo insuficiente","uid":"99beb966db195ebe","parentUid":"0378b8b43591a16f1410ffdb17523018","status":"failed","time":{"start":1772125547014,"stop":1772125553989,"duration":6975},"flaky":true,"newFailed":true,"newPassed":false,"newBroken":false,"retriesCount":0,"retriesStatusChange":false,"parameters":[],"tags":[]}],"uid":"0378b8b43591a16f1410ffdb17523018"},{"name":"1 expectation failed.\nJSON path error doesn't match.\nExpected: OUT_OF_TIME_TRANSACTION\n  Actual: MAX_BALANCE_REACHED\n","children":[{"name":"#8 [CTA-002] Deve atualizar saldo após transferência realizada com sucesso","uid":"f2e1da77457bbd58","parentUid":"a0eea20910982d1c57acaaefb6a8be93","status":"failed","time":{"start":1772125507160,"stop":1772125537478,"duration":30318},"flaky":false,"newFailed":false,"newPassed":false,"newBroken":false,"retriesCount":0,"retriesStatusChange":false,"parameters":[],"tags":[]}],"uid":"a0eea20910982d1c57acaaefb6a8be93"},{"name":"Multiple Failures (1 failure)\n\torg.opentest4j.AssertionFailedError: Status HTTP deve ser 401 ==> expected: <401> but was: <403>","children":[{"name":"#10 [CTA-002] Consultar limite diário sem autenticação","uid":"5cfe54d9db209c89","parentUid":"ccea36982b929cd606dcd9d7b5f533e0","status":"failed","time":{"start":1772125714196,"stop":1772125714580,"duration":384},"flaky":false,"newFailed":false,"newPassed":false,"newBroken":false,"retriesCount":0,"retriesStatusChange":false,"parameters":[],"tags":["Regression"]}],"uid":"ccea36982b929cd606dcd9d7b5f533e0"},{"name":"1 expectation failed.\nExpected status code <400> but was <200>.\n","children":[{"name":"#7 [CTA-013] Não deve realizar depósito em uma conta que não esteja associada ao usuário autenticado","uid":"690d7b7674891996","parentUid":"3939f6cbbc4fe99ffe07188676b4bed3","status":"failed","time":{"start":1772125795433,"stop":1772125820472,"duration":25039},"flaky":false,"newFailed":false,"newPassed":false,"newBroken":false,"retriesCount":0,"retriesStatusChange":false,"parameters":[],"tags":[]}],"uid":"3939f6cbbc4fe99ffe07188676b4bed3"},{"name":"1 expectation failed.\nResponse body doesn't match expectation.\nExpected: iterable containing [\"message\"]\n  Actual: \n","children":[{"name":"#7 [CTA-010] Não deve realizar depósito sem autenticação via API","uid":"12da6ead4a8f5893","parentUid":"56b704b59a87d5dede01fd8627bc03ec","status":"failed","time":{"start":1772125820474,"stop":1772125831626,"duration":11152},"flaky":false,"newFailed":false,"newPassed":false,"newBroken":false,"retriesCount":0,"retriesStatusChange":false,"parameters":[],"tags":[]}],"uid":"56b704b59a87d5dede01fd8627bc03ec"},{"name":"1 expectation failed.\nExpected status code <423> but was <401>.\n","children":[{"name":"#2 [CTA-008] Deve bloquear CPF após 3 tentativas fracassadas","uid":"ea257b7121c49fda","parentUid":"705a302283316b19cda572b79452a81b","status":"failed","time":{"start":1772126459437,"stop":1772126483381,"duration":23944},"flaky":false,"newFailed":false,"newPassed":false,"newBroken":false,"retriesCount":0,"retriesStatusChange":false,"parameters":[],"tags":[]}],"uid":"705a302283316b19cda572b79452a81b"},{"name":"1 expectation failed.\nExpected status code <423> but was <200>.\n","children":[{"name":"#2 [CTA-009] Não deve realizar login de um usuário bloqueado","uid":"ad03aafb44220814","parentUid":"a5f85f4ef40f0cd006889ae10d7443a2","status":"failed","time":{"start":1772126492795,"stop":1772126521776,"duration":28981},"flaky":false,"newFailed":false,"newPassed":false,"newBroken":false,"retriesCount":0,"retriesStatusChange":false,"parameters":[],"tags":[]}],"uid":"a5f85f4ef40f0cd006889ae10d7443a2"},{"name":"Validação de acesso sem autenticação (1 failure)\n\torg.opentest4j.AssertionFailedError: expected: <401> but was: <403>","children":[{"name":"#16/2 [CTA-006] Não deve listar histórico de faturas sem autenticação","uid":"9000b87c573dbceb","parentUid":"d7765c75596364d14d2f653c007c83fd","status":"failed","time":{"start":1772126532514,"stop":1772126532898,"duration":384},"flaky":false,"newFailed":false,"newPassed":false,"newBroken":false,"retriesCount":0,"retriesStatusChange":false,"parameters":[],"tags":["Regression"]},{"name":"#16/2 [CTA-002] Nao deve exibir dados do boleto sem autenticação","uid":"8fb192f61dd3d26b","parentUid":"d7765c75596364d14d2f653c007c83fd","status":"failed","time":{"start":1772126537331,"stop":1772126537713,"duration":382},"flaky":false,"newFailed":false,"newPassed":false,"newBroken":false,"retriesCount":0,"retriesStatusChange":false,"parameters":[],"tags":["Regression"]}],"uid":"d7765c75596364d14d2f653c007c83fd"},{"name":"Timed out retrying after 20050ms: `cy.click()` failed because this element is `disabled`:\n\n`<button class=\"items-center justify-center whitespace-nowrap rounded-md text-sm font-medium transition-colors focus-visible:outline-none focus-visible:ring-1 focus-visible:ring-ring disabled:pointer-events-none disabled:opacity-50 shadow h-9 px-4 py-2 bg-white text-primary hover:bg-white flex gap-2\" disabled=\"\" type=\"submit\">Criar c...</button>`\n\nFix this problem, or use `{force: true}` to disable error checking.\n\nhttps://on.cypress.io/element-cannot-be-interacted-with","children":[{"name":"#1 [CTW-002] Deve impedir cadastro sem aceite dos termos","uid":"7dfc3093d590710","parentUid":"b54e6d424357c850d09ba7ddad2baa50","status":"failed","time":{"start":1772127181820,"stop":1772127206331,"duration":24511},"flaky":false,"newFailed":false,"newPassed":false,"newBroken":false,"retriesCount":0,"retriesStatusChange":false,"parameters":[],"tags":["e2e","regressão"]}],"uid":"b54e6d424357c850d09ba7ddad2baa50"},{"name":"`cy.type()` cannot accept an empty string. You need to actually type something.\n\nhttps://on.cypress.io/type","children":[{"name":"#9 [CTW-003] Não deve avançar para revisão sem informar a chave pix","uid":"73934553e809e35a","parentUid":"ea5428731ef33ab2e101ae02fc46b2b8","status":"failed","time":{"start":1772127255098,"stop":1772127265555,"duration":10457},"flaky":false,"newFailed":false,"newPassed":false,"newBroken":false,"retriesCount":0,"retriesStatusChange":false,"parameters":[],"tags":["e2e","regressão"]}],"uid":"ea5428731ef33ab2e101ae02fc46b2b8"}],"uid":"8fb3a91ba5aaf9de24cc8a92edc82b5d"},{"name":"Bug da Aplicação","children":[{"name":"Timed out retrying after 60000ms: expected 'https://dbcbank-questers-front-vs4.onrender.com/login' to include '/admin'","children":[{"name":"#2 [CTW-001] Deve redirecionar usuário para tela inicial ao fazer login","uid":"afb54749af0a65f","parentUid":"92dbf07535f99cc2a58a648faea2d77f","status":"failed","time":{"start":1772127025778,"stop":1772127087154,"duration":61376},"flaky":false,"newFailed":false,"newPassed":false,"newBroken":false,"retriesCount":0,"retriesStatusChange":false,"parameters":[],"tags":["e2e","regressão"]},{"name":"#2 [CTW-006] Deve retornar um Feedback se o CPF editado não estiver registrado no sistema","uid":"8c6a8e98944a4899","parentUid":"92dbf07535f99cc2a58a648faea2d77f","status":"failed","time":{"start":1772127089455,"stop":1772127150584,"duration":61129},"flaky":false,"newFailed":false,"newPassed":false,"newBroken":false,"retriesCount":0,"retriesStatusChange":false,"parameters":[],"tags":["e2e","regressão"]}],"uid":"92dbf07535f99cc2a58a648faea2d77f"}],"uid":"2b7d3721415ae91c5e4fe2464d88f4a8"}]}